EESchema Schematic File Version 2
LIBS:power
LIBS:device
LIBS:transistors
LIBS:conn
LIBS:linear
LIBS:regul
LIBS:74xx
LIBS:cmos4000
LIBS:adc-dac
LIBS:memory
LIBS:xilinx
LIBS:special
LIBS:microcontrollers
LIBS:dsp
LIBS:microchip
LIBS:analog_switches
LIBS:motorola
LIBS:texas
LIBS:intel
LIBS:audio
LIBS:interface
LIBS:digital-audio
LIBS:philips
LIBS:display
LIBS:cypress
LIBS:siliconi
LIBS:opto
LIBS:atmel
LIBS:contrib
LIBS:valves
LIBS:LedController-cache
EELAYER 25 0
EELAYER END
$Descr A4 11693 8268
encoding utf-8
Sheet 1 1
Title ""
Date ""
Rev ""
Comp ""
Comment1 ""
Comment2 ""
Comment3 ""
Comment4 ""
$EndDescr
$Comp
L PSMN9R8-30MLC Q2
U 1 1 538DB88F
P 6100 3150
F 0 "Q2" H 6050 2750 70  0000 C CNN
F 1 "PSMN9R8-30MLC" H 6100 3600 60  0000 C CNN
F 2 "LedController:PSMN9R8-30MLC" H 6100 3150 60  0001 C CNN
F 3 "" H 6100 3150 60  0000 C CNN
	1    6100 3150
	1    0    0    -1  
$EndComp
$Comp
L C C1
U 1 1 538DFABC
P 3650 2800
F 0 "C1" H 3700 2900 50  0000 L CNN
F 1 "20n" H 3700 2700 50  0000 L CNN
F 2 "Capacitors_SMD:C_1206_HandSoldering" H 3650 2800 60  0001 C CNN
F 3 "" H 3650 2800 60  0000 C CNN
	1    3650 2800
	0    1    1    0   
$EndComp
$Comp
L +5V #PWR8
U 1 1 538DFB87
P 3850 2800
F 0 "#PWR8" H 3850 2890 20  0001 C CNN
F 1 "+5V" H 3850 2890 30  0000 C CNN
F 2 "" H 3850 2800 60  0000 C CNN
F 3 "" H 3850 2800 60  0000 C CNN
	1    3850 2800
	0    1    1    0   
$EndComp
$Comp
L GND #PWR6
U 1 1 538DFBF2
P 3450 2800
F 0 "#PWR6" H 3450 2800 30  0001 C CNN
F 1 "GND" H 3450 2730 30  0001 C CNN
F 2 "" H 3450 2800 60  0000 C CNN
F 3 "" H 3450 2800 60  0000 C CNN
	1    3450 2800
	0    1    1    0   
$EndComp
$Comp
L 74LS595 U1
U 1 1 552B3267
P 4150 3650
F 0 "U1" H 4300 4250 70  0000 C CNN
F 1 "74LS595" H 4150 3050 70  0000 C CNN
F 2 "SparkFun:SparkFun-TSSOP16" H 4150 3650 60  0001 C CNN
F 3 "" H 4150 3650 60  0000 C CNN
	1    4150 3650
	1    0    0    -1  
$EndComp
$Comp
L PSMN9R8-30MLC Q1
U 1 1 552B35EE
P 7550 3150
F 0 "Q1" H 7500 2750 70  0000 C CNN
F 1 "PSMN9R8-30MLC" H 7550 3600 60  0000 C CNN
F 2 "LedController:PSMN9R8-30MLC" H 7550 3150 60  0001 C CNN
F 3 "" H 7550 3150 60  0000 C CNN
	1    7550 3150
	1    0    0    -1  
$EndComp
$Comp
L PSMN9R8-30MLC Q3
U 1 1 552B368E
P 6100 4450
F 0 "Q3" H 6050 4050 70  0000 C CNN
F 1 "PSMN9R8-30MLC" H 6100 4900 60  0000 C CNN
F 2 "LedController:PSMN9R8-30MLC" H 6100 4450 60  0001 C CNN
F 3 "" H 6100 4450 60  0000 C CNN
	1    6100 4450
	1    0    0    -1  
$EndComp
$Comp
L PSMN9R8-30MLC Q4
U 1 1 552B3714
P 6100 5600
F 0 "Q4" H 6050 5200 70  0000 C CNN
F 1 "PSMN9R8-30MLC" H 6100 6050 60  0000 C CNN
F 2 "LedController:PSMN9R8-30MLC" H 6100 5600 60  0001 C CNN
F 3 "" H 6100 5600 60  0000 C CNN
	1    6100 5600
	1    0    0    -1  
$EndComp
$Comp
L PSMN9R8-30MLC Q5
U 1 1 552B394A
P 7450 1950
F 0 "Q5" H 7400 1550 70  0000 C CNN
F 1 "PSMN9R8-30MLC" H 7450 2400 60  0000 C CNN
F 2 "LedController:PSMN9R8-30MLC" H 7450 1950 60  0001 C CNN
F 3 "" H 7450 1950 60  0000 C CNN
	1    7450 1950
	1    0    0    -1  
$EndComp
$Comp
L PSMN9R8-30MLC Q6
U 1 1 552B3BA6
P 6100 1950
F 0 "Q6" H 6050 1550 70  0000 C CNN
F 1 "PSMN9R8-30MLC" H 6100 2400 60  0000 C CNN
F 2 "LedController:PSMN9R8-30MLC" H 6100 1950 60  0001 C CNN
F 3 "" H 6100 1950 60  0000 C CNN
	1    6100 1950
	1    0    0    -1  
$EndComp
$Comp
L PSMN9R8-30MLC Q7
U 1 1 552B3C70
P 7550 4450
F 0 "Q7" H 7500 4050 70  0000 C CNN
F 1 "PSMN9R8-30MLC" H 7550 4900 60  0000 C CNN
F 2 "LedController:PSMN9R8-30MLC" H 7550 4450 60  0001 C CNN
F 3 "" H 7550 4450 60  0000 C CNN
	1    7550 4450
	1    0    0    -1  
$EndComp
$Comp
L PSMN9R8-30MLC Q8
U 1 1 552B3730
P 7550 5600
F 0 "Q8" H 7500 5200 70  0000 C CNN
F 1 "PSMN9R8-30MLC" H 7550 6050 60  0000 C CNN
F 2 "LedController:PSMN9R8-30MLC" H 7550 5600 60  0001 C CNN
F 3 "" H 7550 5600 60  0000 C CNN
	1    7550 5600
	1    0    0    -1  
$EndComp
$Comp
L GND #PWR17
U 1 1 552B37B0
P 7700 6000
F 0 "#PWR17" H 7700 6000 30  0001 C CNN
F 1 "GND" H 7700 5930 30  0001 C CNN
F 2 "" H 7700 6000 60  0000 C CNN
F 3 "" H 7700 6000 60  0000 C CNN
	1    7700 6000
	1    0    0    -1  
$EndComp
$Comp
L GND #PWR13
U 1 1 552B37F4
P 6250 6000
F 0 "#PWR13" H 6250 6000 30  0001 C CNN
F 1 "GND" H 6250 5930 30  0001 C CNN
F 2 "" H 6250 6000 60  0000 C CNN
F 3 "" H 6250 6000 60  0000 C CNN
	1    6250 6000
	1    0    0    -1  
$EndComp
$Comp
L GND #PWR12
U 1 1 552B3827
P 6250 4850
F 0 "#PWR12" H 6250 4850 30  0001 C CNN
F 1 "GND" H 6250 4780 30  0001 C CNN
F 2 "" H 6250 4850 60  0000 C CNN
F 3 "" H 6250 4850 60  0000 C CNN
	1    6250 4850
	1    0    0    -1  
$EndComp
$Comp
L GND #PWR16
U 1 1 552B3846
P 7700 4850
F 0 "#PWR16" H 7700 4850 30  0001 C CNN
F 1 "GND" H 7700 4780 30  0001 C CNN
F 2 "" H 7700 4850 60  0000 C CNN
F 3 "" H 7700 4850 60  0000 C CNN
	1    7700 4850
	1    0    0    -1  
$EndComp
$Comp
L GND #PWR15
U 1 1 552B3879
P 7700 3550
F 0 "#PWR15" H 7700 3550 30  0001 C CNN
F 1 "GND" H 7700 3480 30  0001 C CNN
F 2 "" H 7700 3550 60  0000 C CNN
F 3 "" H 7700 3550 60  0000 C CNN
	1    7700 3550
	1    0    0    -1  
$EndComp
$Comp
L GND #PWR11
U 1 1 552B3898
P 6250 3550
F 0 "#PWR11" H 6250 3550 30  0001 C CNN
F 1 "GND" H 6250 3480 30  0001 C CNN
F 2 "" H 6250 3550 60  0000 C CNN
F 3 "" H 6250 3550 60  0000 C CNN
	1    6250 3550
	1    0    0    -1  
$EndComp
$Comp
L GND #PWR10
U 1 1 552B38C1
P 6250 2350
F 0 "#PWR10" H 6250 2350 30  0001 C CNN
F 1 "GND" H 6250 2280 30  0001 C CNN
F 2 "" H 6250 2350 60  0000 C CNN
F 3 "" H 6250 2350 60  0000 C CNN
	1    6250 2350
	1    0    0    -1  
$EndComp
$Comp
L GND #PWR14
U 1 1 552B38E0
P 7600 2350
F 0 "#PWR14" H 7600 2350 30  0001 C CNN
F 1 "GND" H 7600 2280 30  0001 C CNN
F 2 "" H 7600 2350 60  0000 C CNN
F 3 "" H 7600 2350 60  0000 C CNN
	1    7600 2350
	1    0    0    -1  
$EndComp
$Comp
L GND #PWR9
U 1 1 552B3FD6
P 3850 4300
F 0 "#PWR9" H 3850 4300 30  0001 C CNN
F 1 "GND" H 3850 4230 30  0001 C CNN
F 2 "" H 3850 4300 60  0000 C CNN
F 3 "" H 3850 4300 60  0000 C CNN
	1    3850 4300
	1    0    0    -1  
$EndComp
$Comp
L +5V #PWR3
U 1 1 552B43BF
P 1850 5300
F 0 "#PWR3" H 1850 5390 20  0001 C CNN
F 1 "+5V" H 1850 5390 30  0000 C CNN
F 2 "" H 1850 5300 60  0000 C CNN
F 3 "" H 1850 5300 60  0000 C CNN
	1    1850 5300
	0    1    1    0   
$EndComp
$Comp
L +5V #PWR1
U 1 1 552B4442
P 1800 4300
F 0 "#PWR1" H 1800 4390 20  0001 C CNN
F 1 "+5V" H 1800 4390 30  0000 C CNN
F 2 "" H 1800 4300 60  0000 C CNN
F 3 "" H 1800 4300 60  0000 C CNN
	1    1800 4300
	0    1    1    0   
$EndComp
$Comp
L GND #PWR4
U 1 1 552B447D
P 1900 5200
F 0 "#PWR4" H 1900 5200 30  0001 C CNN
F 1 "GND" H 1900 5130 30  0001 C CNN
F 2 "" H 1900 5200 60  0000 C CNN
F 3 "" H 1900 5200 60  0000 C CNN
	1    1900 5200
	0    -1   -1   0   
$EndComp
$Comp
L GND #PWR2
U 1 1 552B44A0
P 1850 4200
F 0 "#PWR2" H 1850 4200 30  0001 C CNN
F 1 "GND" H 1850 4130 30  0001 C CNN
F 2 "" H 1850 4200 60  0000 C CNN
F 3 "" H 1850 4200 60  0000 C CNN
	1    1850 4200
	0    -1   -1   0   
$EndComp
Wire Wire Line
	4850 3200 4850 1950
Wire Wire Line
	4850 1950 5800 1950
Wire Wire Line
	4850 3400 5800 3400
Wire Wire Line
	7250 3150 7250 3900
Wire Wire Line
	7250 3900 5550 3900
Wire Wire Line
	5550 3900 5550 3500
Wire Wire Line
	5550 3500 4850 3500
Wire Wire Line
	4850 3600 5450 3600
Wire Wire Line
	5450 3600 5450 4450
Wire Wire Line
	5450 4450 5800 4450
Wire Wire Line
	7250 4450 7250 4950
Wire Wire Line
	7250 4950 5250 4950
Wire Wire Line
	5250 4950 5250 3700
Wire Wire Line
	5250 3700 4850 3700
Wire Wire Line
	5800 5600 5050 5600
Wire Wire Line
	5050 5600 5050 3800
Wire Wire Line
	5050 3800 4850 3800
Wire Wire Line
	6700 1950 7150 1950
Wire Wire Line
	4850 3900 4950 3900
Wire Wire Line
	4950 3900 4950 6100
Wire Wire Line
	4950 6100 7250 6100
Wire Wire Line
	7250 6100 7250 5600
Wire Wire Line
	7600 2300 7600 2350
Wire Wire Line
	6250 2300 6250 2350
Wire Wire Line
	6250 3500 6250 3550
Wire Wire Line
	7700 3500 7700 3550
Wire Wire Line
	7700 4800 7700 4850
Wire Wire Line
	6250 4800 6250 4850
Wire Wire Line
	7700 5950 7700 6000
Wire Wire Line
	6250 5950 6250 6000
Text GLabel 2050 5100 2    60   Input ~ 0
Clock
Text GLabel 2000 4100 2    60   Input ~ 0
Clock
Text GLabel 2400 5000 2    60   Input ~ 0
L_Clock
Text GLabel 2000 3900 2    60   Input ~ 0
SerialOut
Text GLabel 2400 4000 2    60   Input ~ 0
L_Clock
Wire Wire Line
	1650 5100 2050 5100
Wire Wire Line
	1650 5000 2400 5000
Wire Wire Line
	1650 4900 2100 4900
Wire Wire Line
	1650 4100 2000 4100
Wire Wire Line
	1650 4000 2400 4000
Wire Wire Line
	1650 3900 2000 3900
Text GLabel 4850 4200 3    60   Input ~ 0
SerialOut
Wire Wire Line
	4850 4100 4850 4200
Text GLabel 3400 3200 0    60   Input ~ 0
SerialIn
Text GLabel 2100 4900 2    60   Input ~ 0
SerialIn
Text GLabel 3400 3700 0    60   Input ~ 0
L_Clock
Text GLabel 3400 3350 0    60   Input ~ 0
Clock
Wire Wire Line
	3400 3200 3450 3200
Wire Wire Line
	3450 3400 3450 3350
Wire Wire Line
	3450 3350 3400 3350
Wire Wire Line
	3300 3500 3450 3500
Wire Wire Line
	3400 3700 3450 3700
Wire Wire Line
	3450 3800 3450 3900
Wire Wire Line
	6250 1350 6250 1600
Text GLabel 7750 2800 2    60   Input ~ 0
Output0
Text GLabel 6200 2800 0    60   Input ~ 0
Output1
Text GLabel 7600 1350 0    60   Input ~ 0
Output2
Text GLabel 6250 1350 2    60   Input ~ 0
Output3
Text GLabel 6300 4100 2    60   Input ~ 0
Output4
Text GLabel 7750 4100 2    60   Input ~ 0
Output5
Text GLabel 6300 5250 2    60   Input ~ 0
Output6
Text GLabel 7750 5250 2    60   Input ~ 0
Output7
Wire Wire Line
	7750 5250 7700 5250
Wire Wire Line
	6300 5250 6250 5250
Wire Wire Line
	6300 4100 6250 4100
Wire Wire Line
	7750 4100 7700 4100
Wire Wire Line
	7750 2800 7700 2800
Wire Wire Line
	6200 2800 6250 2800
Wire Wire Line
	7600 1350 7600 1600
Text GLabel 9050 3350 0    60   Input ~ 0
Output0
Text GLabel 9050 3500 0    60   Input ~ 0
Output1
Text GLabel 9050 3650 0    60   Input ~ 0
Output2
Text GLabel 9050 3800 0    60   Input ~ 0
Output3
Wire Wire Line
	9050 3350 9250 3350
Text GLabel 9050 3950 0    60   Input ~ 0
Output4
Text GLabel 9050 4100 0    60   Input ~ 0
Output5
Text GLabel 9050 4250 0    60   Input ~ 0
Output6
Text GLabel 9050 4400 0    60   Input ~ 0
Output7
Wire Wire Line
	9050 4250 9150 4250
Wire Wire Line
	9050 4400 9200 4400
Wire Wire Line
	3700 2800 3900 2800
Wire Wire Line
	3850 3100 3850 2800
Connection ~ 3850 2800
Wire Wire Line
	3850 4200 3850 4300
$Comp
L CONN_4 P4
U 1 1 553322EF
P 9600 3500
F 0 "P4" V 9550 3500 50  0000 C CNN
F 1 "CONN_4" V 9650 3500 50  0000 C CNN
F 2 "Socket_Strips:Socket_Strip_Straight_1x04" H 9600 3500 60  0001 C CNN
F 3 "" H 9600 3500 60  0000 C CNN
	1    9600 3500
	1    0    0    -1  
$EndComp
$Comp
L CONN_4 P3
U 1 1 5533237A
P 9550 4000
F 0 "P3" V 9500 4000 50  0000 C CNN
F 1 "CONN_4" V 9600 4000 50  0000 C CNN
F 2 "Socket_Strips:Socket_Strip_Straight_1x04" H 9550 4000 60  0001 C CNN
F 3 "" H 9550 4000 60  0000 C CNN
	1    9550 4000
	1    0    0    -1  
$EndComp
Wire Wire Line
	9200 4400 9200 4150
Wire Wire Line
	9150 4250 9150 4050
Wire Wire Line
	9150 4050 9200 4050
Wire Wire Line
	9050 4100 9100 4100
Wire Wire Line
	9100 4100 9100 4000
Wire Wire Line
	9100 4000 9200 4000
Wire Wire Line
	9200 4000 9200 3950
Wire Wire Line
	9050 3950 9150 3950
Wire Wire Line
	9150 3950 9150 3850
Wire Wire Line
	9150 3850 9200 3850
Wire Wire Line
	9050 3800 9250 3800
Wire Wire Line
	9250 3800 9250 3650
Wire Wire Line
	9050 3650 9200 3650
Wire Wire Line
	9200 3650 9200 3550
Wire Wire Line
	9200 3550 9250 3550
Wire Wire Line
	9050 3500 9150 3500
Wire Wire Line
	9150 3500 9150 3450
Wire Wire Line
	9150 3450 9250 3450
Wire Wire Line
	5800 3400 5800 3150
Wire Wire Line
	4850 3300 5450 3300
Wire Wire Line
	5450 3300 5450 2500
Wire Wire Line
	5450 2500 6700 2500
Wire Wire Line
	6700 2500 6700 1950
$Comp
L CONN_5 P1
U 1 1 55F4A760
P 1250 4100
F 0 "P1" V 1200 4100 50  0000 C CNN
F 1 "CONN_5" V 1300 4100 50  0000 C CNN
F 2 "Connectors_Molex:Connector_Molex_PicoBlade_53047-0510" H 1250 4100 60  0001 C CNN
F 3 "" H 1250 4100 60  0000 C CNN
	1    1250 4100
	-1   0    0    1   
$EndComp
$Comp
L CONN_5 P2
U 1 1 55F4A7DE
P 1250 5100
F 0 "P2" V 1200 5100 50  0000 C CNN
F 1 "CONN_5" V 1300 5100 50  0000 C CNN
F 2 "Connectors_Molex:Connector_Molex_PicoBlade_53047-0510" H 1250 5100 60  0001 C CNN
F 3 "" H 1250 5100 60  0000 C CNN
	1    1250 5100
	-1   0    0    1   
$EndComp
Wire Wire Line
	1650 4200 1850 4200
Wire Wire Line
	1650 4300 1800 4300
Wire Wire Line
	1650 5200 1900 5200
Wire Wire Line
	1650 5300 1850 5300
$Comp
L GND #PWR7
U 1 1 55F4B286
P 3450 3900
F 0 "#PWR7" H 3450 3900 30  0001 C CNN
F 1 "GND" H 3450 3830 30  0001 C CNN
F 2 "" H 3450 3900 60  0000 C CNN
F 3 "" H 3450 3900 60  0000 C CNN
	1    3450 3900
	1    0    0    -1  
$EndComp
$Comp
L +5V #PWR5
U 1 1 55F4B940
P 3300 3500
F 0 "#PWR5" H 3300 3590 20  0001 C CNN
F 1 "+5V" H 3300 3590 30  0000 C CNN
F 2 "" H 3300 3500 60  0000 C CNN
F 3 "" H 3300 3500 60  0000 C CNN
	1    3300 3500
	0    -1   -1   0   
$EndComp
$EndSCHEMATC
