(module VerticalMouseBites (layer F.Cu) (tedit 55E130CE)
  (fp_text reference REF** (at 0 0.5) (layer F.SilkS) hide
    (effects (font (size 1 1) (thickness 0.15)))
  )
  (fp_text value VerticalMouseBites (at 0 -0.5) (layer F.Fab) hide
    (effects (font (size 1 1) (thickness 0.15)))
  )
  (pad "" np_thru_hole circle (at 0 2) (size 0.5 0.5) (drill 0.5) (layers *.Cu *.Mask F.SilkS))
  (pad "" np_thru_hole circle (at 0 1) (size 0.5 0.5) (drill 0.5) (layers *.Cu *.Mask F.SilkS))
  (pad "" np_thru_hole circle (at 0 0) (size 0.5 0.5) (drill 0.5) (layers *.Cu *.Mask F.SilkS))
)
